{
  "cordova-plugin-whitelist": {
    "source": {
      "type": "registry",
      "id": "cordova-plugin-whitelist@1"
    },
    "is_top_level": true,
    "variables": {}
  },
  "cordova-plugin-geolocation": {
    "source": {
      "type": "registry",
      "id": "cordova-plugin-geolocation@^4.0.1"
    },
    "is_top_level": true,
    "variables": {}
  },
  "call-number": {
    "source": {
      "type": "registry",
      "id": "https://github.com/Rohfosho/CordovaCallNumberPlugin.git"
    },
    "is_top_level": true,
    "variables": {}
  },
  "cordova-sms-plugin": {
    "source": {
      "type": "registry",
      "id": "cordova-sms-plugin"
    },
    "is_top_level": true,
    "variables": {}
  },
  "cordova-plugin-network-information": {
    "source": {
      "type": "registry",
      "id": "cordova-plugin-network-information"
    },
    "is_top_level": true,
    "variables": {}
  }
}